{
    "ids_properties": 
        {
            "provider": "GKDB",
            "comment": "This is a GKDB JSON example"
        },
    "code": 
        {
            "name": "test",
            "parameters": 
                {
                    "code_specific_parameter_1": 0.2,
                    "code_specific_parameter_2": "flux-tube",
                    "code_specific_parameter_3": true
                },
            "version": "0.4-b1-688-g9840fbc"
        },
    "model": 
        {
            "include_full_curvature_drift": true,
            "include_centrifugal_effects": false,
            "initial_value_run": true,
            "non_linear_run": false,
            "time_interval_norm": [null],
            "collisions_pitch_only": false,
            "collisions_finite_larmor_radius": false,
            "collisions_momentum_conservation": true,
            "collisions_energy_conservation": true,
            "include_a_field_parallel": false,
            "include_b_field_parallel": false
        },
    "flux_surface": 
        {
            "r_minor_norm": 0.15,
            "q": 2,
            "magnetic_shear_r_minor": 1,
            "b_field_tor_sign": 1,
            "ip_sign": 1,
            "pressure_gradient_norm": 0,
            "shape_coefficients_c": [0.15,-5.8447906e-18,-7.0459538e-18,-1.746402e-18,-2.5497075e-18,-8.0766215e-18,-5.619417e-18,-1.107903e-17,-6.4923238e-18],
            "shape_coefficients_s": [0,5.4034421e-18,-1.4437964e-18,6.6359319e-18,-2.7627048e-18,-2.0172184e-18,-3.5147027e-18,-2.8142052e-18,-1.0564787e-19],
            "dc_dr_minor_norm": [1,-8.0816342e-15,-3.1560418e-15,-6.34046e-15,-9.3580914e-15,3.8408626e-16,-1.0250607e-15,-2.5046989e-15,-7.5193507e-15],
            "ds_dr_minor_norm": [0,2.5117625e-15,1.7358035e-15,1.9836538e-15,-3.0816092e-15,-1.1036468e-15,8.4514073e-16,-1.955575e-15,3.1824779e-15]
        },
    "species":     [
        {
            "charge_norm": 1,
            "mass_norm": 1,
            "density_norm": 1,
            "temperature_norm": 1,
            "density_log_gradient_norm": 3,
            "temperature_log_gradient_norm": 9,
            "velocity_tor_gradient_norm": 0
        },
        {
            "charge_norm": -1,
            "mass_norm": 0.00027244371,
            "density_norm": 1,
            "temperature_norm": 1,
            "density_log_gradient_norm": 3,
            "temperature_log_gradient_norm": 9,
            "velocity_tor_gradient_norm": -0.99999998
        }    ],
    "species_all": 
        {
            "velocity_tor_norm": 0.099999998,
            "shearing_rate_norm": null,
            "debye_length_reference": 0,
            "beta_reference": 0
        },
    "collisions": 
        {
            "collisionality_norm": [[0.00135081,0.00115177],[0.069779422,0.070203514]]
        },
    "wavevector":     [
        {
            "poloidal_turns": 3,
            "radial_component_norm": 0.049999999,
            "binormal_component_norm": 0.29999999,
            "eigenmode":     [
                {
                    "growth_rate_norm": 0.53876599,
                    "frequency_norm": 0.44484099,
                    "growth_rate_tolerance": 2.7024769e-06,
                    "time_norm": [30.000001],
                    "poloidal_angle": [-8.9009505,-7.9287983,-7.074113,-6.2831854,-5.4922577,-4.6375723,-3.6654201,-2.6177652,-1.645613,-0.79092766,0,0.79092766,1.645613,2.6177652,3.6654201,4.6375723,5.4922577,6.2831854,7.074113,7.9287983,8.9009505],
                    "phi_potential_perturbed_norm_real": [[0.70505278],[0.57276485],[0.65697765],[0.62640008],[0.51217448],[0.44492207],[0.47769578],[0.61403897],[0.61081036],[0.63676919],[0.60384001],[0.60253833],[0.58071745],[0.56971823],[0.50310856],[0.46937802],[0.52615846],[0.65713969],[0.66066423],[0.65266917],[0.71733986]],
                    "phi_potential_perturbed_norm_imaginary": [[-0.10771248],[-0.24371248],[-0.15265429],[0.011903795],[0.089561137],[0.050812292],[0.028270786],[0.025174395],[-0.034689873],[0.040485233],[0.021657735],[0.061320444],[0.015475663],[0.01224835],[0.026508029],[0.063267013],[0.1269074],[0.0090010583],[-0.081606203],[-0.17380285],[-1.3752621e-17]],
                    "a_field_parallel_perturbed_norm_real": [[0],[0],[0],[0],[0],[0],[0],[0],[0],[0],[0],[0],[0],[0],[0],[0],[0],[0],[0],[0],[0]],
                    "a_field_parallel_perturbed_norm_imaginary": [[0],[0],[0],[0],[0],[0],[0],[0],[0],[0],[0],[0],[0],[0],[0],[0],[0],[0],[0],[0],[0]],
                    "b_field_parallel_perturbed_norm_real": [[0],[0],[0],[0],[0],[0],[0],[0],[0],[0],[0],[0],[0],[0],[0],[0],[0],[0],[0],[0],[0]],
                    "b_field_parallel_perturbed_norm_imaginary": [[0],[0],[0],[0],[0],[0],[0],[0],[0],[0],[0],[0],[0],[0],[0],[0],[0],[0],[0],[0],[0]],
                    "fluxes_moments":     [
                        {
                            "moments_norm_rotating_frame": 
                                {
                                    "density_real": [[0.14199603],[0.085770328],[0.081631326],[0.039661588],[-0.057563618],[-0.12457142],[-0.11764339],[-0.073293061],[-0.045358769],[-0.030997234],[-0.014891345],[-0.0006317943],[0.00049480288],[-0.035523918],[-0.11465229],[-0.13847181],[-0.068662806],[0.034198678],[0.064232214],[0.01990161],[0.13160108]],
                                    "density_imaginary": [[-0.077319046],[-0.22673856],[-0.15767176],[-0.039468664],[0.043170023],[0.044257252],[0.01304912],[0.00058010894],[0.012984178],[0.024037223],[0.018127248],[-0.00022704861],[-0.016685239],[-0.0027475352],[0.026939553],[0.048604182],[0.040867089],[-0.0528025],[-0.21122692],[-0.3021532],[-0.17404461]],
                                    "velocity_parallel_real": [[0.029361632],[-0.033821848],[-0.05605386],[-0.11281542],[-0.063810123],[0.020386778],[0.031357195],[0.0069673477],[-0.0099951376],[0.00013352952],[0.015853701],[0.014848715],[-0.0068332084],[-0.03942593],[-0.028762525],[0.0010819081],[0.071033097],[0.10454599],[0.036964961],[0.057830976],[-0.0037475877]],
                                    "velocity_parallel_imaginary": [[-0.027828614],[0.0076851986],[0.08890031],[0.036570773],[-0.047677895],[-0.036941378],[0.014074904],[0.033678583],[0.032304469],[0.01871248],[0.0063513144],[-0.010202064],[-0.018514939],[-0.037457199],[-0.033602772],[0.029967147],[0.04555412],[-0.03751257],[-0.05914907],[0.040064608],[0.088879895]],
                                    "temperature_perpendicular_real": [[0.036773279],[0.011371837],[-0.0069008288],[-0.051760761],[-0.11004033],[-0.12988765],[-0.12867308],[-0.11851093],[-0.11083027],[-0.1090918],[-0.098343331],[-0.089718194],[-0.081486308],[-0.10302788],[-0.12575671],[-0.12729256],[-0.10256956],[-0.043826954],[-0.0095574276],[-0.027602928],[0.034763398]],
                                    "temperature_perpendicular_imaginary": [[-0.0010814832],[-0.082110925],[-0.036506196],[0.019234758],[0.029180227],[0.018798103],[0.014719904],[0.025974498],[0.035838487],[0.040854076],[0.042158167],[0.041665469],[0.039028219],[0.036992765],[0.018597709],[0.019323356],[0.029216659],[0.0075345633],[-0.074012543],[-0.13351655],[-0.062706382]],
                                    "temperature_parallel_real": [[0.037656612],[-0.042753439],[-0.0399048],[-0.027472105],[-0.074104327],[-0.13927801],[-0.15993109],[-0.13422796],[-0.10239749],[-0.086169179],[-0.072769225],[-0.070362749],[-0.071735391],[-0.09921305],[-0.14963491],[-0.14406231],[-0.078929577],[-0.03688225],[-0.056184276],[-0.098551645],[0.0014374611]],
                                    "temperature_parallel_imaginary": [[-0.054425567],[-0.13212067],[-0.10864272],[-0.045294582],[0.034952224],[0.047524942],[0.023321461],[0.022828252],[0.035261733],[0.045451956],[0.040492232],[0.02689345],[0.012638448],[0.025454141],[0.036831075],[0.047650492],[0.029582056],[-0.049954137],[-0.12884857],[-0.15003303],[-0.11225922]],
                                    "density_gyroaveraged_real": [[0.13913738],[0.084932657],[0.08208136],[0.042987593],[-0.052039877],[-0.12059811],[-0.11591696],[-0.072761552],[-0.045157464],[-0.030787892],[-0.014568555],[-0.00014845423],[0.0011859444],[-0.034008809],[-0.11084677],[-0.13102712],[-0.059544593],[0.038919135],[0.065248693],[0.022910535],[0.12760788]],
                                    "density_gyroaveraged_imaginary": [[-0.07716209],[-0.22079231],[-0.15498165],[-0.040684177],[0.041696912],[0.04367856],[0.012851462],[0.00046364407],[0.012919083],[0.023958821],[0.017988868],[-0.00045145996],[-0.017015944],[-0.0032908547],[0.026374967],[0.047461462],[0.038247742],[-0.053532737],[-0.20239647],[-0.2871081],[-0.16687078]],
                                    "velocity_parallel_gyroaveraged_real": [[0.028928132],[-0.032414901],[-0.053811702],[-0.10936802],[-0.062719697],[0.02000159],[0.031242108],[0.0069913101],[-0.0099780294],[0.00013799966],[0.015834292],[0.014811586],[-0.0068233489],[-0.039271849],[-0.02861613],[0.0013251337],[0.06896363],[0.099275882],[0.034754671],[0.054671468],[-0.0044818928]],
                                    "velocity_parallel_gyroaveraged_imaginary": [[-0.027427338],[0.0069404902],[0.085807323],[0.036002216],[-0.046361869],[-0.036498603],[0.013973844],[0.03361125],[0.032280414],[0.018694499],[0.0063297168],[-0.010196047],[-0.018438638],[-0.037100874],[-0.033128889],[0.029179701],[0.043452159],[-0.03600974],[-0.055135458],[0.039266371],[0.085190518]],
                                    "temperature_perpendicular_gyroaveraged_real": [[0.035671511],[0.011746647],[-0.0039792626],[-0.044558219],[-0.10119267],[-0.1243201],[-0.12616901],[-0.11761917],[-0.11046942],[-0.10871105],[-0.097738416],[-0.088765227],[-0.080084164],[-0.1002181],[-0.12026445],[-0.1175349],[-0.088913401],[-0.033718185],[-0.0051172452],[-0.021848315],[0.033329457]],
                                    "temperature_perpendicular_gyroaveraged_imaginary": [[-0.0046402005],[-0.079241958],[-0.037550552],[0.015366104],[0.027472218],[0.018458509],[0.014479719],[0.025754076],[0.035723218],[0.040721392],[0.041904674],[0.041183334],[0.038206858],[0.035799083],[0.018017758],[0.018666526],[0.026250799],[0.0030904398],[-0.070124715],[-0.12213698],[-0.059090318]],
                                    "temperature_parallel_gyroaveraged_real": [[0.037071564],[-0.040696733],[-0.037367535],[-0.024682953],[-0.070410939],[-0.13633261],[-0.15846568],[-0.13375031],[-0.10222345],[-0.085990747],[-0.072491432],[-0.069930838],[-0.0711091],[-0.097892441],[-0.14647706],[-0.1386857],[-0.072885731],[-0.032144664],[-0.05153241],[-0.092570602],[0.0023705377]],
                                    "temperature_parallel_gyroaveraged_imaginary": [[-0.054252054],[-0.12932951],[-0.10683463],[-0.04557291],[0.033840841],[0.047010678],[0.023203565],[0.022719166],[0.035194718],[0.045368766],[0.040345954],[0.026657896],[0.012304394],[0.024889513],[0.036360754],[0.046780731],[0.027927762],[-0.049831917],[-0.1243874],[-0.14429096],[-0.10838852]]
                                },
                            "fluxes_norm": 
                                {
                                    "particles_phi_potential": 0.010913278,
                                    "particles_a_field_parallel": 0,
                                    "particles_b_field_parallel": 0,
                                    "momentum_tor_parallel_phi_potential": 0.05637153,
                                    "momentum_tor_perpendicular_phi_potential": null,
                                    "momentum_tor_parallel_a_field_parallel": -0,
                                    "momentum_tor_perpendicular_a_field_parallel": null,
                                    "momentum_tor_parallel_b_field_parallel": -0,
                                    "momentum_tor_perpendicular_b_field_parallel": null,
                                    "energy_phi_potential": 0.65565378,
                                    "energy_a_field_parallel": 0,
                                    "energy_b_field_parallel": 0
                                }
                        },
                        {
                            "moments_norm_rotating_frame": 
                                {
                                    "density_real": [[0.086094907],[0.039749128],[0.036300071],[0.0013049443],[-0.078002157],[-0.13478718],[-0.12263452],[-0.075313683],[-0.046211983],[-0.031943826],[-0.016549276],[-0.0035751816],[-0.003985625],[-0.043003585],[-0.12513821],[-0.15642457],[-0.10360361],[-0.027055781],[-0.0074508142],[-0.03772582],[0.052435248]],
                                    "density_imaginary": [[-0.077162476],[-0.20876178],[-0.14932767],[-0.041255033],[0.035435745],[0.041766546],[0.012497665],[0.00040881265],[0.012891],[0.023841206],[0.017917863],[-0.00066928099],[-0.016722192],[-0.0036595148],[0.02552956],[0.044561958],[0.030544752],[-0.054786583],[-0.18550663],[-0.26131125],[-0.15538839]],
                                    "velocity_parallel_real": [[0.043035041],[-0.14879867],[-0.36715826],[0.6199959],[0.97595673],[-0.13212518],[-0.5337415],[0.075449831],[0.27724499],[0.15592168],[-0.033865433],[0.053112129],[-0.079201314],[0.43335742],[1.1230287],[0.18296162],[-0.74975064],[-0.67381397],[0.86660657],[1.4001707],[0.19709821]],
                                    "velocity_parallel_imaginary": [[1.7786904],[0.48666046],[0.46809926],[0.51686166],[1.3476212],[2.1697511],[1.5538925],[1.3664901],[0.86639152],[1.0884839],[1.1095273],[1.3933292],[1.336067],[1.1002605],[1.4216049],[0.51219738],[0.54781069],[1.5998638],[1.9586269],[1.5338891],[0.9069284]],
                                    "temperature_perpendicular_real": [[0.016170217],[-0.010810872],[-0.01489242],[-0.033554332],[-0.07201055],[-0.10101113],[-0.096946226],[-0.073374687],[-0.060432109],[-0.054081763],[-0.046567676],[-0.040342003],[-0.039297788],[-0.056728879],[-0.099819077],[-0.11390859],[-0.08704329],[-0.049707196],[-0.03722265],[-0.048694336],[-0.0011222334]],
                                    "temperature_perpendicular_imaginary": [[-0.01811244],[-0.079343794],[-0.047984603],[0.0042582803],[0.042495873],[0.047878917],[0.033230768],[0.028449662],[0.037036664],[0.042288003],[0.038903506],[0.029595339],[0.020040678],[0.024464009],[0.040005996],[0.049212487],[0.03934123],[-0.0038741693],[-0.067463119],[-0.10789455],[-0.059783897]],
                                    "temperature_parallel_real": [[0.047228002],[0.011965765],[0.014060873],[-0.00062000356],[-0.049176856],[-0.079981965],[-0.061171867],[-0.031146652],[-0.022242932],[-0.021094883],[-0.014410055],[-0.0057288138],[4.8624664e-05],[-0.012961877],[-0.063785301],[-0.088032292],[-0.054809301],[-0.0037414368],[0.0071951277],[-0.019070815],[0.033104939]],
                                    "temperature_parallel_imaginary": [[-0.019755596],[-0.084826512],[-0.043895803],[0.018570365],[0.057222357],[0.046298601],[0.018364823],[0.0097098223],[0.020803023],[0.032163121],[0.030674785],[0.018452623],[0.0038118782],[0.0099282176],[0.02301956],[0.039708992],[0.050660093],[0.0123288],[-0.066288922],[-0.11772906],[-0.06653531]],
                                    "density_gyroaveraged_real": [[0.086094562],[0.039749343],[0.036300367],[0.0013055534],[-0.078001152],[-0.13478632],[-0.12263416],[-0.075313593],[-0.046211953],[-0.031943798],[-0.016549234],[-0.0035751222],[-0.0039855338],[-0.043003356],[-0.12513737],[-0.15642272],[-0.10360143],[-0.02705423],[-0.0074495884],[-0.037724292],[0.052435283]],
                                    "density_gyroaveraged_imaginary": [[-0.07716209],[-0.2087602],[-0.14932671],[-0.04125511],[0.035435152],[0.041766143],[0.012497543],[0.00040877782],[0.012890982],[0.023841184],[0.017917828],[-0.00066932455],[-0.016722239],[-0.0036596135],[0.025529226],[0.044561159],[0.030543765],[-0.054786462],[-0.18550441],[-0.26130787],[-0.1553865]],
                                    "velocity_parallel_gyroaveraged_real": [[0.043043621],[-0.14879333],[-0.36715145],[0.61999282],[0.97595296],[-0.1321216],[-0.53373949],[0.075449793],[0.27724491],[0.15592165],[-0.033865398],[0.053112092],[-0.079201196],[0.43335659],[1.123022],[0.18295458],[-0.7497457],[-0.67380598],[0.86659053],[1.4001491],[0.19708505]],
                                    "velocity_parallel_gyroaveraged_imaginary": [[1.7786582],[0.48664174],[0.4680868],[0.51685301],[1.3476084],[2.1697393],[1.5538887],[1.3664892],[0.86639138],[1.0884837],[1.109527],[1.3933285],[1.3360659],[1.1002594],[1.4216031],[0.51220391],[0.54781977],[1.5998587],[1.9586208],[1.5338969],[0.90693959]],
                                    "temperature_perpendicular_gyroaveraged_real": [[0.016170766],[-0.010809822],[-0.014891349],[-0.033553044],[-0.072009017],[-0.10100992],[-0.096945689],[-0.073374538],[-0.060432057],[-0.054081714],[-0.046567602],[-0.040341886],[-0.039297594],[-0.056728456],[-0.099817828],[-0.11390605],[-0.087040198],[-0.049704545],[-0.037220238],[-0.048691562],[-0.0011208473]],
                                    "temperature_perpendicular_gyroaveraged_imaginary": [[-0.018112561],[-0.079342813],[-0.047984286],[0.0042576572],[0.042494867],[0.04787825],[0.033230542],[0.028449593],[0.037036631],[0.042287966],[0.038903448],[0.029595254],[0.020040565],[0.024463802],[0.040005417],[0.049211167],[0.039339482],[-0.0038750104],[-0.067461988],[-0.10789211],[-0.059782755]],
                                    "temperature_parallel_gyroaveraged_real": [[0.04722775],[0.011965962],[0.014061096],[-0.00061965484],[-0.04917627],[-0.079981493],[-0.061171708],[-0.031146618],[-0.022242918],[-0.021094867],[-0.01441003],[-0.0057287803],[4.8664735e-05],[-0.012961801],[-0.063784923],[-0.088031311],[-0.054808159],[-0.0037407569],[0.00719564],[-0.019070021],[0.033104807]],
                                    "temperature_parallel_gyroaveraged_imaginary": [[-0.01975542],[-0.08482575],[-0.04389549],[0.018570084],[0.057221884],[0.04629837],[0.018364788],[0.0097098165],[0.020803016],[0.032163109],[0.030674764],[0.018452599],[0.0038118645],[0.0099281978],[0.023019463],[0.039708595],[0.050659299],[0.012328391],[-0.066288063],[-0.11772735],[-0.06653432]]
                                },
                            "fluxes_norm": 
                                {
                                    "particles_phi_potential": 0.010913278,
                                    "particles_a_field_parallel": 0,
                                    "particles_b_field_parallel": 0,
                                    "momentum_tor_parallel_phi_potential": 9.333097e-06,
                                    "momentum_tor_perpendicular_phi_potential": null,
                                    "momentum_tor_parallel_a_field_parallel": -0,
                                    "momentum_tor_perpendicular_a_field_parallel": null,
                                    "momentum_tor_parallel_b_field_parallel": -0,
                                    "momentum_tor_perpendicular_b_field_parallel": null,
                                    "energy_phi_potential": 0.23197542,
                                    "energy_a_field_parallel": 0,
                                    "energy_b_field_parallel": 0
                                }
                        }                    ]
                }            ]
        },
        {
            "poloidal_turns": 3,
            "radial_component_norm": -0,
            "binormal_component_norm": 0.29999999,
            "eigenmode":     [
                {
                    "growth_rate_norm": 0.55187799,
                    "frequency_norm": 0.44501899,
                    "growth_rate_tolerance": 3.5369511e-06,
                    "time_norm": [28.800001],
                    "poloidal_angle": [-8.9009505,-7.9287983,-7.074113,-6.2831854,-5.4922577,-4.6375723,-3.6654201,-2.6177652,-1.645613,-0.79092766,0,0.79092766,1.645613,2.6177652,3.6654201,4.6375723,5.4922577,6.2831854,7.074113,7.9287983,8.9009505],
                    "phi_potential_perturbed_norm_real": [[0.078128185],[0.072660383],[0.068090588],[0.075256806],[0.074574574],[0.086764165],[0.11037592],[0.40702893],[0.63670168],[1.4916771],[1.1788147],[1.4017662],[0.75653112],[0.35615942],[0.10526927],[0.084601273],[0.073738255],[0.072959253],[0.0672519],[0.071182198],[0.077088481]],
                    "phi_potential_perturbed_norm_imaginary": [[0.033353581],[0.024417217],[0.020087667],[0.011701992],[0.010418714],[0.0057632679],[0.025056032],[-0.1117616],[0.56103761],[0.015517083],[0.12995015],[-0.081111445],[0.36616248],[-0.15336985],[0.029324622],[0.0082364987],[0.011786559],[0.012797771],[0.021148503],[0.027872637],[0.037357634]],
                    "a_field_parallel_perturbed_norm_real": [[-0],[-0],[-0],[-0],[-0],[-0],[-0],[-0],[-0],[-0],[-0],[-0],[-0],[-0],[-0],[-0],[-0],[-0],[-0],[-0],[-0]],
                    "a_field_parallel_perturbed_norm_imaginary": [[0],[0],[0],[0],[0],[0],[0],[0],[0],[0],[0],[0],[0],[0],[0],[0],[0],[0],[0],[0],[0]],
                    "b_field_parallel_perturbed_norm_real": [[-0],[-0],[-0],[-0],[-0],[-0],[-0],[-0],[-0],[-0],[-0],[-0],[-0],[-0],[-0],[-0],[-0],[-0],[-0],[-0],[-0]],
                    "b_field_parallel_perturbed_norm_imaginary": [[0],[0],[0],[0],[0],[0],[0],[0],[0],[0],[0],[0],[0],[0],[0],[0],[0],[0],[0],[0],[0]],
                    "fluxes_moments":     [
                        {
                            "moments_norm_rotating_frame": 
                                {
                                    "density_real": [[-0.015434043],[-0.02196774],[-0.012446566],[0.0067549662],[0.013482764],[-0.0081713391],[-0.0032864941],[0.23172646],[0.55542683],[0.72444083],[0.74719197],[0.74952985],[0.53102556],[0.25187034],[0.014831608],[-0.0060970563],[0.012777951],[0.0072528682],[-0.012466024],[-0.020944913],[-0.015068813]],
                                    "density_imaginary": [[0.03354992],[0.033817908],[0.035636962],[0.039807282],[0.022260188],[0.0078286171],[-0.046122447],[-0.13951256],[0.0080016677],[-0.11580035],[-0.11613108],[-0.0058626723],[0.19756038],[-0.025693222],[-0.029837299],[0.0042965331],[0.021444132],[0.041444599],[0.037389019],[0.033717976],[0.033119157]],
                                    "velocity_parallel_real": [[-0.0010208607],[0.00096789793],[0.0039810887],[0.0066116031],[0.0018390451],[-0.0069802847],[-0.018243548],[0.32810364],[0.40156132],[0.17676844],[0.00072377246],[-0.22063463],[-0.38036943],[-0.33635865],[-0.00015216497],[0.0094994522],[0.0014158577],[-0.0029086607],[0.00049354989],[0.0022155726],[0.0035029342]],
                                    "velocity_parallel_imaginary": [[0.0033038627],[0.0021638678],[0.0036115032],[-0.00013626951],[0.001945715],[0.0085367393],[-0.061477073],[-0.11218],[-0.098657472],[-0.20042979],[-0.076829588],[0.030005278],[-0.082859183],[-0.028112128],[0.055299265],[-0.003503501],[9.0178459e-05],[0.00032544349],[-0.00023991278],[0.0024492322],[-0.0011184572]],
                                    "temperature_perpendicular_real": [[-0.0019583947],[0.00073307742],[-0.00068513898],[0.0028627076],[0.013663385],[0.0045421392],[-0.035104782],[0.090222165],[0.53931311],[0.52254349],[0.55526205],[0.60890062],[0.62776723],[0.14685861],[-0.025203352],[0.0042029682],[0.013241077],[0.0023386079],[-0.00068118827],[0.00086524054],[-0.0016455746]],
                                    "temperature_perpendicular_imaginary": [[0.0036814725],[0.003300123],[0.0041541453],[0.01391333],[0.007768442],[0.0076792773],[-0.032639442],[-0.3081606],[-0.52926626],[-1.0174278],[-1.065436],[-0.97439455],[-0.36300039],[-0.24381433],[-0.030122541],[0.0061352887],[0.0078448873],[0.014483676],[0.0039646516],[0.003082109],[0.003648456]],
                                    "temperature_parallel_real": [[-0.0088982266],[-0.011379526],[-0.0080536325],[0.0016698906],[-0.00026490631],[-0.02487608],[-0.05232351],[0.16052907],[0.50642441],[0.51041891],[0.53051313],[0.56631994],[0.52292647],[0.18158352],[-0.028965028],[-0.023955658],[-0.0023415693],[-0.00013793999],[-0.0092232198],[-0.010983988],[-0.0085713476]],
                                    "temperature_parallel_imaginary": [[0.0050095319],[0.003095935],[0.0060805239],[0.0081857582],[0.0032527023],[0.0061067826],[-0.086670851],[-0.32787391],[-0.36913564],[-0.73436775],[-0.70880809],[-0.65840436],[-0.16680429],[-0.21672709],[-0.068930207],[0.0015326087],[0.0027210031],[0.0091590357],[0.0062641486],[0.0033039796],[0.0048447653]],
                                    "density_gyroaveraged_real": [[-0.0098488161],[-0.018528293],[-0.0097871413],[0.0023792633],[-0.0010629188],[-0.0084091781],[0.018644269],[0.20754934],[0.48328801],[0.68548538],[0.71518498],[0.70410801],[0.44697343],[0.21187894],[0.030640965],[-0.0062162291],[-0.0010434278],[0.0036315718],[-0.0096419492],[-0.017831273],[-0.010018208]],
                                    "density_gyroaveraged_imaginary": [[0.023936331],[0.024443392],[0.024668383],[0.018776836],[0.011992041],[0.0012489964],[-0.025078906],[-0.053202899],[0.079187381],[-0.03981179],[-0.054621882],[0.066880882],[0.24632407],[0.042702393],[-0.01059384],[-0.00055995814],[0.011213745],[0.019453039],[0.026417502],[0.02474024],[0.023645301]],
                                    "velocity_parallel_gyroaveraged_real": [[-0.00015264332],[0.0011946438],[0.00389761],[0.001185727],[-0.0013866795],[-0.003721705],[-0.0041921213],[0.26295741],[0.36761639],[0.16925285],[0.0011558559],[-0.21037103],[-0.34689017],[-0.26740715],[-0.0066000261],[0.0050042412],[0.0025392446],[0.00038217729],[-3.0387413e-05],[0.0018436229],[0.0027455486]],
                                    "velocity_parallel_gyroaveraged_imaginary": [[0.0023956062],[0.0014267571],[0.0018115193],[-0.0015911037],[0.001342332],[0.00066497649],[-0.039752688],[-0.081363778],[-0.085256309],[-0.1900487],[-0.073704125],[0.027947704],[-0.08133916],[-0.033132828],[0.035155761],[0.001964441],[-0.00015883596],[0.0011951282],[0.00025550131],[0.0020094905],[-0.0010450118]],
                                    "temperature_perpendicular_gyroaveraged_real": [[-0.00070192638],[-0.0029132581],[-0.0011187347],[-0.00012204179],[-0.0046803045],[-0.0057507563],[-0.012375553],[0.043875719],[0.41513789],[0.45444734],[0.4989044],[0.5309421],[0.48521307],[0.077381717],[-0.008729843],[-0.0053885888],[-0.0046896648],[7.1760547e-05],[-0.0011811833],[-0.0028700936],[-0.00078124029]],
                                    "temperature_perpendicular_gyroaveraged_imaginary": [[0.0014424162],[0.0016166859],[0.0014889087],[-0.0026998334],[-0.001190417],[-0.0018987991],[-0.014927683],[-0.18527535],[-0.4168478],[-0.89137031],[-0.96322323],[-0.85209506],[-0.28409898],[-0.14712142],[-0.012893031],[-0.0021084886],[-0.0013334081],[-0.0027811886],[0.0017178891],[0.0016730224],[0.0013910441]],
                                    "temperature_parallel_gyroaveraged_real": [[-0.0057744307],[-0.0099531515],[-0.0062502501],[0.00033357466],[-0.0077471264],[-0.018689281],[-0.032416226],[0.12888776],[0.44804014],[0.476425],[0.50238766],[0.52861424],[0.46059785],[0.14442671],[-0.017551824],[-0.017920687],[-0.0083275667],[0.00045437973],[-0.0071287031],[-0.0097354341],[-0.0056981146]],
                                    "temperature_parallel_gyroaveraged_imaginary": [[0.003657627],[0.0021452244],[0.0035293112],[-0.0015053931],[-0.0009246427],[-0.00089779993],[-0.057963447],[-0.25955095],[-0.32418146],[-0.68222289],[-0.66808582],[-0.60961253],[-0.14149308],[-0.1681739],[-0.045004865],[-0.0026101755],[-0.0013477284],[-0.0010539537],[0.0041806104],[0.0024408171],[0.0034147389]]
                                },
                            "fluxes_norm": 
                                {
                                    "particles_phi_potential": 0.010490038,
                                    "particles_a_field_parallel": 0,
                                    "particles_b_field_parallel": 0,
                                    "momentum_tor_parallel_phi_potential": 0.026871073,
                                    "momentum_tor_perpendicular_phi_potential": null,
                                    "momentum_tor_parallel_a_field_parallel": -0,
                                    "momentum_tor_perpendicular_a_field_parallel": null,
                                    "momentum_tor_parallel_b_field_parallel": -0,
                                    "momentum_tor_perpendicular_b_field_parallel": null,
                                    "energy_phi_potential": 0.63632116,
                                    "energy_a_field_parallel": 0,
                                    "energy_b_field_parallel": 0
                                }
                        },
                        {
                            "moments_norm_rotating_frame": 
                                {
                                    "density_real": [[-0.0698205],[-0.073577738],[-0.062016307],[-0.05359107],[-0.055079677],[-0.063023808],[-0.030044437],[0.11809188],[0.38623321],[0.58334147],[0.64840942],[0.59541268],[0.365291],[0.10964492],[-0.020408475],[-0.062227223],[-0.055673758],[-0.054101717],[-0.062523645],[-0.074024486],[-0.070800276]],
                                    "density_imaginary": [[-0.0051541161],[0.0028620965],[0.0082172531],[0.0089304158],[0.0033303955],[-0.0040949168],[-0.038665429],[-0.014701022],[0.032202993],[-0.033908652],[-0.06198903],[0.065743952],[0.1743426],[0.070758278],[-0.022204848],[-0.0043082734],[0.0035530591],[0.010446483],[0.010790027],[0.005829412],[-0.0023321274]],
                                    "velocity_parallel_real": [[-1.7942291],[-1.1718866],[-0.65062248],[-0.32511099],[-0.38192789],[-0.40744057],[-1.3235829],[-1.8377335],[-4.3048086],[-0.41124286],[-0.47408741],[1.9480569],[4.9183798],[1.0100963],[1.9373719],[0.52574295],[0.4782737],[0.42842303],[0.76574426],[1.2624029],[1.8866099]],
                                    "velocity_parallel_imaginary": [[-2.8800213],[-3.2060579],[-3.4782676],[-3.4864391],[-3.4627886],[-3.7661517],[-1.9180792],[-5.2734515],[-2.3162324],[1.0012456],[-0.41824035],[-2.0637531],[2.8337471],[6.3376081],[1.6945263],[3.5489094],[3.4479593],[3.5063897],[3.5027736],[3.2322902],[2.8820434]],
                                    "temperature_perpendicular_real": [[-0.086072868],[-0.076529475],[-0.052584303],[-0.03990355],[-0.040473571],[-0.05130391],[-0.065843963],[-0.072539682],[-0.032451905],[-0.0149871],[-0.0075775519],[-0.0060826199],[-0.039177992],[-0.077641559],[-0.063372566],[-0.052852022],[-0.042282937],[-0.041618119],[-0.054508992],[-0.078775878],[-0.088862517]],
                                    "temperature_perpendicular_imaginary": [[-0.071102114],[-0.058206147],[-0.045141811],[-0.03988279],[-0.046370199],[-0.067042138],[-0.13152453],[-0.20774667],[-0.26553617],[-0.3461162],[-0.36955432],[-0.29674416],[-0.18872949],[-0.15936335],[-0.12293411],[-0.067866242],[-0.047148473],[-0.040151435],[-0.044539135],[-0.056484248],[-0.068719812]],
                                    "temperature_parallel_real": [[-0.026626099],[-0.028432774],[-0.022569024],[-0.015932669],[-0.013131265],[-0.019512899],[0.0028322062],[0.10587896],[0.33114366],[0.48527032],[0.53226408],[0.50148939],[0.31228083],[0.10187869],[0.012378299],[-0.021435605],[-0.014334643],[-0.016983546],[-0.02370423],[-0.029562543],[-0.027809935]],
                                    "temperature_parallel_imaginary": [[-0.06107346],[-0.065611633],[-0.072105232],[-0.074970258],[-0.079028503],[-0.076935671],[-0.10614729],[-0.081169423],[-0.032335518],[-0.10557638],[-0.1488719],[-0.04961289],[0.050761809],[-0.044160886],[-0.10731869],[-0.078266557],[-0.07809202],[-0.073759281],[-0.071039785],[-0.065409248],[-0.061562148]],
                                    "density_gyroaveraged_real": [[-0.06973927],[-0.073508032],[-0.061967075],[-0.053556273],[-0.055051848],[-0.063001636],[-0.030030812],[0.11809808],[0.38623447],[0.58334179],[0.64840954],[0.59541281],[0.36529252],[0.10965155],[-0.020395361],[-0.062204382],[-0.055644685],[-0.054065425],[-0.062472611],[-0.073952734],[-0.070716413]],
                                    "density_gyroaveraged_imaginary": [[-0.0050870146],[0.0029151118],[0.0082595151],[0.0089651927],[0.0033622778],[-0.0040659438],[-0.038638214],[-0.014683277],[0.032213288],[-0.03390138],[-0.061983072],[0.065750187],[0.17434992],[0.07077189],[-0.022179409],[-0.0042789443],[0.0035854765],[0.010481494],[0.010831725],[0.0058808587],[-0.0022672746]],
                                    "velocity_parallel_gyroaveraged_real": [[-1.7926547],[-1.1711039],[-0.65041082],[-0.32524682],[-0.3819579],[-0.40725413],[-1.3232834],[-1.8376457],[-4.3047452],[-0.41124629],[-0.47408649],[1.9480374],[4.918296],[1.0100361],[1.9369972],[0.52550902],[0.47824625],[0.42848671],[0.7654434],[1.2615325],[1.8849274]],
                                    "velocity_parallel_gyroaveraged_imaginary": [[-2.8766167],[-3.2028131],[-3.4749743],[-3.4835087],[-3.4603984],[-3.7643373],[-1.9172571],[-5.2730415],[-2.3161541],[1.0012411],[-0.41823651],[-2.0637383],[2.8336527],[6.3371516],[1.6937316],[3.5471279],[3.4455457],[3.5034196],[3.4994462],[3.2290267],[2.8786428]],
                                    "temperature_perpendicular_gyroaveraged_real": [[-0.085930823],[-0.076424326],[-0.052521542],[-0.039862774],[-0.040439291],[-0.051272866],[-0.065816438],[-0.072517181],[-0.032439683],[-0.014980009],[-0.0075721475],[-0.0060757532],[-0.039165583],[-0.077618337],[-0.063344703],[-0.052819188],[-0.042246233],[-0.041574502],[-0.054442664],[-0.078666205],[-0.088714463]],
                                    "temperature_perpendicular_gyroaveraged_imaginary": [[-0.070984534],[-0.058120569],[-0.045078125],[-0.039832461],[-0.046324763],[-0.066998965],[-0.13147963],[-0.20771172],[-0.26551523],[-0.34610283],[-0.36954374],[-0.2967318],[-0.18871172],[-0.15933299],[-0.12289088],[-0.067822334],[-0.047102101],[-0.040100289],[-0.044475397],[-0.056400067],[-0.068604828]],
                                    "temperature_parallel_gyroaveraged_real": [[-0.026598647],[-0.028405502],[-0.022546721],[-0.015917742],[-0.013120703],[-0.019504035],[0.0028345954],[0.10587628],[0.33113939],[0.48526733],[0.53226164],[0.50148621],[0.31227691],[0.10187633],[0.012380056],[-0.021425807],[-0.014322908],[-0.016967234],[-0.023680299],[-0.029533637],[-0.027780789]],
                                    "temperature_parallel_gyroaveraged_imaginary": [[-0.061018162],[-0.065557869],[-0.072047415],[-0.074915887],[-0.078982963],[-0.076904965],[-0.10612953],[-0.081162932],[-0.032332292],[-0.10557325],[-0.14886903],[-0.049610319],[0.050763376],[-0.044156009],[-0.10730078],[-0.078235522],[-0.078046592],[-0.073705143],[-0.070982281],[-0.065355577],[-0.06150662]]
                                },
                            "fluxes_norm": 
                                {
                                    "particles_phi_potential": 0.010490038,
                                    "particles_a_field_parallel": 0,
                                    "particles_b_field_parallel": 0,
                                    "momentum_tor_parallel_phi_potential": 5.7597011e-05,
                                    "momentum_tor_perpendicular_phi_potential": null,
                                    "momentum_tor_parallel_a_field_parallel": -0,
                                    "momentum_tor_perpendicular_a_field_parallel": null,
                                    "momentum_tor_parallel_b_field_parallel": -0,
                                    "momentum_tor_perpendicular_b_field_parallel": null,
                                    "energy_phi_potential": 0.2241349,
                                    "energy_a_field_parallel": 0,
                                    "energy_b_field_parallel": 0
                                }
                        }                    ]
                }            ]
        },
        {
            "poloidal_turns": 3,
            "radial_component_norm": -0.099999998,
            "binormal_component_norm": 0.29999999,
            "eigenmode":     [
                {
                    "growth_rate_norm": 0.50435099,
                    "frequency_norm": 0.43826399,
                    "growth_rate_tolerance": 2.0135605e-06,
                    "time_norm": [10,15,20],
                    "poloidal_angle": [-8.9009505,-7.9287983,-7.074113,-6.2831854,-5.4922577,-4.6375723,-3.6654201,-2.6177652,-1.645613,-0.79092766,0,0.79092766,1.645613,2.6177652,3.6654201,4.6375723,5.4922577,6.2831854,7.074113,7.9287983,8.9009505],
                    "phi_potential_perturbed_norm_real": [[0.093107484,0.093107484,0.093107484],[0.064145566,0.064145566,0.064145566],[0.030712677,0.030712677,0.030712677],[0.085502952,0.085502952,0.085502952],[0.084877143,0.084877143,0.084877143],[0.075536669,0.075536669,0.075536669],[0.15849426,0.15849426,0.15849426],[0.38641152,0.38641152,0.38641152],[1.0385584,1.0385584,1.0385584],[0.66388316,0.66388316,0.66388316],[1.2069484,1.2069484,1.2069484],[0.86396914,0.86396914,0.86396914],[1.0563076,1.0563076,1.0563076],[0.65841325,0.65841325,0.65841325],[0.15497031,0.15497031,0.15497031],[0.099590349,0.099590349,0.099590349],[0.096835995,0.096835995,0.096835995],[0.087364393,0.087364393,0.087364393],[0.037828959,0.037828959,0.037828959],[0.064597147,0.064597147,0.064597147],[0.095956443,0.095956443,0.095956443]],
                    "phi_potential_perturbed_norm_imaginary": [[0.041911885,0.041911885,0.041911885],[0.02688682,0.02688682,0.02688682],[0.041388114,0.041388114,0.041388114],[0.067553325,0.067553325,0.067553325],[0.011228105,0.011228105,0.011228105],[-0.027992602,-0.027992602,-0.027992602],[-0.049756838,-0.049756838,-0.049756838],[-0.56600439,-0.56600439,-0.56600439],[-0.0016038989,-0.0016038989,-0.0016038989],[-0.62591065,-0.62591065,-0.62591065],[0.017597818,0.017597818,0.017597818],[-0.62302908,-0.62302908,-0.62302908],[0.24788469,0.24788469,0.24788469],[-0.64190149,-0.64190149,-0.64190149],[-0.020805321,-0.020805321,-0.020805321],[-0.056986669,-0.056986669,-0.056986669],[-0.0019338715,-0.0019338715,-0.0019338715],[0.041666572,0.041666572,0.041666572],[0.023733363,0.023733363,0.023733363],[0.016360357,0.016360357,0.016360357],[0.033416946,0.033416946,0.033416946]],
                    "a_field_parallel_perturbed_norm_real": [[0,0,0],[0,0,0],[0,0,0],[0,0,0],[0,0,0],[0,0,0],[0,0,0],[0,0,0],[0,0,0],[0,0,0],[0,0,0],[0,0,0],[0,0,0],[0,0,0],[0,0,0],[0,0,0],[0,0,0],[0,0,0],[0,0,0],[0,0,0],[0,0,0]],
                    "a_field_parallel_perturbed_norm_imaginary": [[0,0,0],[0,0,0],[0,0,0],[0,0,0],[0,0,0],[0,0,0],[0,0,0],[0,0,0],[0,0,0],[0,0,0],[0,0,0],[0,0,0],[0,0,0],[0,0,0],[0,0,0],[0,0,0],[0,0,0],[0,0,0],[0,0,0],[0,0,0],[0,0,0]],
                    "b_field_parallel_perturbed_norm_real": [[0,0,0],[0,0,0],[0,0,0],[0,0,0],[0,0,0],[0,0,0],[0,0,0],[0,0,0],[0,0,0],[0,0,0],[0,0,0],[0,0,0],[0,0,0],[0,0,0],[0,0,0],[0,0,0],[0,0,0],[0,0,0],[0,0,0],[0,0,0],[0,0,0]],
                    "b_field_parallel_perturbed_norm_imaginary": [[0,0,0],[0,0,0],[0,0,0],[0,0,0],[0,0,0],[0,0,0],[0,0,0],[0,0,0],[0,0,0],[0,0,0],[0,0,0],[0,0,0],[0,0,0],[0,0,0],[0,0,0],[0,0,0],[0,0,0],[0,0,0],[0,0,0],[0,0,0],[0,0,0]],
                    "fluxes_moments":     [
                        {
                            "moments_norm_rotating_frame": 
                                {
                                    "density_real": [[-0.025766171,-0.025766171,-0.025766171],[-0.077084626,-0.077084626,-0.077084626],[-0.090693197,-0.090693197,-0.090693197],[-0.045539121,-0.045539121,-0.045539121],[-0.044161992,-0.044161992,-0.044161992],[-0.053022799,-0.053022799,-0.053022799],[0.085030145,0.085030145,0.085030145],[0.44812492,0.44812492,0.44812492],[0.62676646,0.62676646,0.62676646],[0.60820067,0.60820067,0.60820067],[0.55489039,0.55489039,0.55489039],[0.49003233,0.49003233,0.49003233],[0.46177571,0.46177571,0.46177571],[0.26837918,0.26837918,0.26837918],[0.0071497171,0.0071497171,0.0071497171],[-0.06846152,-0.06846152,-0.06846152],[-0.058601337,-0.058601337,-0.058601337],[-0.054412971,-0.054412971,-0.054412971],[-0.096184301,-0.096184301,-0.096184301],[-0.0822072,-0.0822072,-0.0822072],[-0.035784696,-0.035784696,-0.035784696]],
                                    "density_imaginary": [[0.018677987,0.018677987,0.018677987],[0.010034807,0.010034807,0.010034807],[0.031248683,0.031248683,0.031248683],[0.038998195,0.038998195,0.038998195],[0.0022907668,0.0022907668,0.0022907668],[-0.037158253,-0.037158253,-0.037158253],[-0.19342384,-0.19342384,-0.19342384],[-0.32261998,-0.32261998,-0.32261998],[-0.22948152,-0.22948152,-0.22948152],[-0.29371199,-0.29371199,-0.29371199],[-0.33951709,-0.33951709,-0.33951709],[-0.35044869,-0.35044869,-0.35044869],[-0.33793768,-0.33793768,-0.33793768],[-0.33746742,-0.33746742,-0.33746742],[-0.18010549,-0.18010549,-0.18010549],[-0.025564419,-0.025564419,-0.025564419],[0.012719081,0.012719081,0.012719081],[0.05048261,0.05048261,0.05048261],[0.042755067,0.042755067,0.042755067],[0.016856328,0.016856328,0.016856328],[0.02246906,0.02246906,0.02246906]],
                                    "velocity_parallel_real": [[0.0078743724,0.0078743724,0.0078743724],[-0.014913595,-0.014913595,-0.014913595],[-0.028175618,-0.028175618,-0.028175618],[0.014039872,0.014039872,0.014039872],[-0.00087006668,-0.00087006668,-0.00087006668],[-0.068063018,-0.068063018,-0.068063018],[-0.08075682,-0.08075682,-0.08075682],[0.46398589,0.46398589,0.46398589],[0.2139603,0.2139603,0.2139603],[-0.066390507,-0.066390507,-0.066390507],[-0.28040896,-0.28040896,-0.28040896],[-0.33710206,-0.33710206,-0.33710206],[-0.38404317,-0.38404317,-0.38404317],[-0.39518665,-0.39518665,-0.39518665],[0.12951645,0.12951645,0.12951645],[0.066367221,0.066367221,0.066367221],[0.0070178354,0.0070178354,0.0070178354],[-0.015956154,-0.015956154,-0.015956154],[0.024486437,0.024486437,0.024486437],[0.020951958,0.020951958,0.020951958],[0.0018357429,0.0018357429,0.0018357429]],
                                    "velocity_parallel_imaginary": [[-0.035734672,-0.035734672,-0.035734672],[-0.034878613,-0.034878613,-0.034878613],[0.015670237,0.015670237,0.015670237],[0.041443273,0.041443273,0.041443273],[0.028735871,0.028735871,0.028735871],[-0.0018972914,-0.0018972914,-0.0018972914],[-0.32020056,-0.32020056,-0.32020056],[-0.29987614,-0.29987614,-0.29987614],[-0.20643864,-0.20643864,-0.20643864],[-0.25773667,-0.25773667,-0.25773667],[-0.14437416,-0.14437416,-0.14437416],[-0.027560579,-0.027560579,-0.027560579],[0.12337278,0.12337278,0.12337278],[0.37818653,0.37818653,0.37818653],[0.25342062,0.25342062,0.25342062],[-0.012806709,-0.012806709,-0.012806709],[-0.024345526,-0.024345526,-0.024345526],[-0.029878374,-0.029878374,-0.029878374],[-0.013633735,-0.013633735,-0.013633735],[0.033362505,0.033362505,0.033362505],[0.030352945,0.030352945,0.030352945]],
                                    "temperature_perpendicular_real": [[-0.0081175993,-0.0081175993,-0.0081175993],[-0.028995571,-0.028995571,-0.028995571],[-0.021083703,-0.021083703,-0.021083703],[0.010966429,0.010966429,0.010966429],[-0.017909324,-0.017909324,-0.017909324],[-0.10610178,-0.10610178,-0.10610178],[-0.23267546,-0.23267546,-0.23267546],[0.041335128,0.041335128,0.041335128],[0.48737218,0.48737218,0.48737218],[0.30901221,0.30901221,0.30901221],[0.21042439,0.21042439,0.21042439],[0.002735815,0.002735815,0.002735815],[0.012234138,0.012234138,0.012234138],[-0.31071605,-0.31071605,-0.31071605],[-0.2780837,-0.2780837,-0.2780837],[-0.077268533,-0.077268533,-0.077268533],[-0.0074175077,-0.0074175077,-0.0074175077],[0.021917696,0.021917696,0.021917696],[-0.013855525,-0.013855525,-0.013855525],[-0.028202029,-0.028202029,-0.028202029],[-0.010037485,-0.010037485,-0.010037485]],
                                    "temperature_perpendicular_imaginary": [[-0.0098155873,-0.0098155873,-0.0098155873],[-0.0010506912,-0.0010506912,-0.0010506912],[0.020681154,0.020681154,0.020681154],[0.018792907,0.018792907,0.018792907],[0.024520806,0.024520806,0.024520806],[0.057618381,0.057618381,0.057618381],[-0.19043245,-0.19043245,-0.19043245],[-0.83231762,-0.83231762,-0.83231762],[-0.97562255,-0.97562255,-0.97562255],[-1.114893,-1.114893,-1.114893],[-1.2253556,-1.2253556,-1.2253556],[-1.129383,-1.129383,-1.129383],[-1.0642302,-1.0642302,-1.0642302],[-0.69474301,-0.69474301,-0.69474301],[-0.095893371,-0.095893371,-0.095893371],[0.055998407,0.055998407,0.055998407],[0.0026782555,0.0026782555,0.0026782555],[0.0026793575,0.0026793575,0.0026793575],[0.018963579,0.018963579,0.018963579],[0.00082977224,0.00082977224,0.00082977224],[-0.0090184644,-0.0090184644,-0.0090184644]],
                                    "temperature_parallel_real": [[-0.00085085733,-0.00085085733,-0.00085085733],[-0.045235463,-0.045235463,-0.045235463],[-0.062924823,-0.062924823,-0.062924823],[0.0084840996,0.0084840996,0.0084840996],[-0.038717291,-0.038717291,-0.038717291],[-0.18206559,-0.18206559,-0.18206559],[-0.1992881,-0.1992881,-0.1992881],[0.044656544,0.044656544,0.044656544],[0.083362095,0.083362095,0.083362095],[-0.084198779,-0.084198779,-0.084198779],[-0.072994568,-0.072994568,-0.072994568],[-0.14165411,-0.14165411,-0.14165411],[-0.02500298,-0.02500298,-0.02500298],[-0.060924155,-0.060924155,-0.060924155],[-0.25331624,-0.25331624,-0.25331624],[-0.14481846,-0.14481846,-0.14481846],[-0.016925741,-0.016925741,-0.016925741],[0.023649325,0.023649325,0.023649325],[-0.04896603,-0.04896603,-0.04896603],[-0.03962251,-0.03962251,-0.03962251],[-0.0043153523,-0.0043153523,-0.0043153523]],
                                    "temperature_parallel_imaginary": [[-0.032872769,-0.032872769,-0.032872769],[-0.022231252,-0.022231252,-0.022231252],[0.030299933,0.030299933,0.030299933],[0.070521964,0.070521964,0.070521964],[0.061404258,0.061404258,0.061404258],[0.055184296,0.055184296,0.055184296],[-0.29342989,-0.29342989,-0.29342989],[-0.59803283,-0.59803283,-0.59803283],[-0.67858344,-0.67858344,-0.67858344],[-0.73601123,-0.73601123,-0.73601123],[-0.72113653,-0.72113653,-0.72113653],[-0.61645323,-0.61645323,-0.61645323],[-0.55541306,-0.55541306,-0.55541306],[-0.47715181,-0.47715181,-0.47715181],[-0.21874942,-0.21874942,-0.21874942],[0.064775476,0.064775476,0.064775476],[0.04023767,0.04023767,0.04023767],[0.051959896,0.051959896,0.051959896],[0.029701688,0.029701688,0.029701688],[-0.012670325,-0.012670325,-0.012670325],[-0.024835528,-0.024835528,-0.024835528]],
                                    "density_gyroaveraged_real": [[-0.022396661,-0.022396661,-0.022396661],[-0.065834965,-0.065834965,-0.065834965],[-0.081867311,-0.081867311,-0.081867311],[-0.04897916,-0.04897916,-0.04897916],[-0.038636217,-0.038636217,-0.038636217],[-0.03240543,-0.03240543,-0.03240543],[0.10793887,0.10793887,0.10793887],[0.44633518,0.44633518,0.44633518],[0.61535167,0.61535167,0.61535167],[0.60403976,0.60403976,0.60403976],[0.55316955,0.55316955,0.55316955],[0.4900153,0.4900153,0.4900153],[0.46165161,0.46165161,0.46165161],[0.27619826,0.27619826,0.27619826],[0.025614226,0.025614226,0.025614226],[-0.057392092,-0.057392092,-0.057392092],[-0.056822128,-0.056822128,-0.056822128],[-0.060242373,-0.060242373,-0.060242373],[-0.091402313,-0.091402313,-0.091402313],[-0.07335601,-0.07335601,-0.07335601],[-0.032363917,-0.032363917,-0.032363917]],
                                    "density_gyroaveraged_imaginary": [[0.022208358,0.022208358,0.022208358],[0.010408178,0.010408178,0.010408178],[0.02314097,0.02314097,0.02314097],[0.031690542,0.031690542,0.031690542],[-0.0050511508,-0.0050511508,-0.0050511508],[-0.048069018,-0.048069018,-0.048069018],[-0.17461684,-0.17461684,-0.17461684],[-0.28500268,-0.28500268,-0.28500268],[-0.20655367,-0.20655367,-0.20655367],[-0.27866783,-0.27866783,-0.27866783],[-0.32948148,-0.32948148,-0.32948148],[-0.34300797,-0.34300797,-0.34300797],[-0.32699858,-0.32699858,-0.32699858],[-0.3199765,-0.3199765,-0.3199765],[-0.1736695,-0.1736695,-0.1736695],[-0.03343002,-0.03343002,-0.03343002],[0.011894837,0.011894837,0.011894837],[0.049255415,0.049255415,0.049255415],[0.036824285,0.036824285,0.036824285],[0.016595988,0.016595988,0.016595988],[0.02517526,0.02517526,0.02517526]],
                                    "velocity_parallel_gyroaveraged_real": [[0.0070032165,0.0070032165,0.0070032165],[-0.011211688,-0.011211688,-0.011211688],[-0.024611675,-0.024611675,-0.024611675],[0.0067934905,0.0067934905,0.0067934905],[-0.0043189905,-0.0043189905,-0.0043189905],[-0.055694059,-0.055694059,-0.055694059],[-0.065720048,-0.065720048,-0.065720048],[0.44800918,0.44800918,0.44800918],[0.21076784,0.21076784,0.21076784],[-0.06512857,-0.06512857,-0.06512857],[-0.27840816,-0.27840816,-0.27840816],[-0.33528886,-0.33528886,-0.33528886],[-0.38112216,-0.38112216,-0.38112216],[-0.38910237,-0.38910237,-0.38910237],[0.11740983,0.11740983,0.11740983],[0.060519463,0.060519463,0.060519463],[0.010570969,0.010570969,0.010570969],[-0.0087883826,-0.0087883826,-0.0087883826],[0.02373844,0.02373844,0.02373844],[0.017887282,0.017887282,0.017887282],[0.0014131173,0.0014131173,0.0014131173]],
                                    "velocity_parallel_gyroaveraged_imaginary": [[-0.028734065,-0.028734065,-0.028734065],[-0.031628845,-0.031628845,-0.031628845],[0.0072536878,0.0072536878,0.0072536878],[0.027861228,0.027861228,0.027861228],[0.01582676,0.01582676,0.01582676],[-0.010390464,-0.010390464,-0.010390464],[-0.29798008,-0.29798008,-0.29798008],[-0.28575128,-0.28575128,-0.28575128],[-0.20146588,-0.20146588,-0.20146588],[-0.25432079,-0.25432079,-0.25432079],[-0.14300045,-0.14300045,-0.14300045],[-0.02720084,-0.02720084,-0.02720084],[0.12231614,0.12231614,0.12231614],[0.36861483,0.36861483,0.36861483],[0.24410436,0.24410436,0.24410436],[-0.0045457353,-0.0045457353,-0.0045457353],[-0.016528587,-0.016528587,-0.016528587],[-0.023347101,-0.023347101,-0.023347101],[-0.0078629996,-0.0078629996,-0.0078629996],[0.031076425,0.031076425,0.031076425],[0.02529994,0.02529994,0.02529994]],
                                    "temperature_perpendicular_gyroaveraged_real": [[-0.0073803942,-0.0073803942,-0.0073803942],[-0.021860813,-0.021860813,-0.021860813],[-0.018590155,-0.018590155,-0.018590155],[0.0019001262,0.0019001262,0.0019001262],[-0.01491371,-0.01491371,-0.01491371],[-0.082616937,-0.082616937,-0.082616937],[-0.19719926,-0.19719926,-0.19719926],[0.031595454,0.031595454,0.031595454],[0.46238736,0.46238736,0.46238736],[0.29959168,0.29959168,0.29959168],[0.20630205,0.20630205,0.20630205],[0.0021059892,0.0021059892,0.0021059892],[0.011375142,0.011375142,0.011375142],[-0.29618314,-0.29618314,-0.29618314],[-0.24883142,-0.24883142,-0.24883142],[-0.066112266,-0.066112266,-0.066112266],[-0.0072869383,-0.0072869383,-0.0072869383],[0.010431408,0.010431408,0.010431408],[-0.015132049,-0.015132049,-0.015132049],[-0.022708363,-0.022708363,-0.022708363],[-0.0091389302,-0.0091389302,-0.0091389302]],
                                    "temperature_perpendicular_gyroaveraged_imaginary": [[-0.0043528547,-0.0043528547,-0.0043528547],[-0.00047894105,-0.00047894105,-0.00047894105],[0.013661701,0.013661701,0.013661701],[0.015731952,0.015731952,0.015731952],[0.017751987,0.017751987,0.017751987],[0.03966457,0.03966457,0.03966457],[-0.16368065,-0.16368065,-0.16368065],[-0.76834925,-0.76834925,-0.76834925],[-0.93850334,-0.93850334,-0.93850334],[-1.090233,-1.090233,-1.090233],[-1.2084695,-1.2084695,-1.2084695],[-1.1166093,-1.1166093,-1.1166093],[-1.0446655,-1.0446655,-1.0446655],[-0.66351113,-0.66351113,-0.66351113],[-0.089738762,-0.089738762,-0.089738762],[0.043903997,0.043903997,0.043903997],[0.0053517327,0.0053517327,0.0053517327],[0.0072849115,0.0072849115,0.0072849115],[0.014063481,0.014063481,0.014063481],[0.00068856097,0.00068856097,0.00068856097],[-0.0043868561,-0.0043868561,-0.0043868561]],
                                    "temperature_parallel_gyroaveraged_real": [[-0.00088024393,-0.00088024393,-0.00088024393],[-0.037876936,-0.037876936,-0.037876936],[-0.055577329,-0.055577329,-0.055577329],[-0.00058217548,-0.00058217548,-0.00058217548],[-0.03682954,-0.03682954,-0.03682954],[-0.16030663,-0.16030663,-0.16030663],[-0.18000858,-0.18000858,-0.18000858],[0.04305932,0.04305932,0.04305932],[0.078355539,0.078355539,0.078355539],[-0.0851115,-0.0851115,-0.0851115],[-0.073381188,-0.073381188,-0.073381188],[-0.14118649,-0.14118649,-0.14118649],[-0.025019787,-0.025019787,-0.025019787],[-0.057960539,-0.057960539,-0.057960539],[-0.23754235,-0.23754235,-0.23754235],[-0.13332007,-0.13332007,-0.13332007],[-0.018640156,-0.018640156,-0.018640156],[0.013290771,0.013290771,0.013290771],[-0.045998027,-0.045998027,-0.045998027],[-0.034514093,-0.034514093,-0.034514093],[-0.0038131758,-0.0038131758,-0.0038131758]],
                                    "temperature_parallel_gyroaveraged_imaginary": [[-0.025694633,-0.025694633,-0.025694633],[-0.019814261,-0.019814261,-0.019814261],[0.020964835,0.020964835,0.020964835],[0.056878733,0.056878733,0.056878733],[0.0493201,0.0493201,0.0493201],[0.042947008,0.042947008,0.042947008],[-0.27204355,-0.27204355,-0.27204355],[-0.57151524,-0.57151524,-0.57151524],[-0.66280362,-0.66280362,-0.66280362],[-0.72590437,-0.72590437,-0.72590437],[-0.71472549,-0.71472549,-0.71472549],[-0.61193879,-0.61193879,-0.61193879],[-0.5490963,-0.5490963,-0.5490963],[-0.46574958,-0.46574958,-0.46574958],[-0.20968101,-0.20968101,-0.20968101],[0.055500605,0.055500605,0.055500605],[0.035864651,0.035864651,0.035864651],[0.046366316,0.046366316,0.046366316],[0.023232835,0.023232835,0.023232835],[-0.011763088,-0.011763088,-0.011763088],[-0.01979844,-0.01979844,-0.01979844]]
                                },
                            "fluxes_norm": 
                                {
                                    "particles_phi_potential": 0.0083146348,
                                    "particles_a_field_parallel": 0,
                                    "particles_b_field_parallel": 0,
                                    "momentum_tor_parallel_phi_potential": -0.040610035,
                                    "momentum_tor_perpendicular_phi_potential": null,
                                    "momentum_tor_parallel_a_field_parallel": -0,
                                    "momentum_tor_perpendicular_a_field_parallel": null,
                                    "momentum_tor_parallel_b_field_parallel": -0,
                                    "momentum_tor_perpendicular_b_field_parallel": null,
                                    "energy_phi_potential": 0.64694109,
                                    "energy_a_field_parallel": 0,
                                    "energy_b_field_parallel": 0
                                }
                        },
                        {
                            "moments_norm_rotating_frame": 
                                {
                                    "density_real": [[-0.05270862,-0.05270862,-0.05270862],[-0.085934651,-0.085934651,-0.085934651],[-0.093976382,-0.093976382,-0.093976382],[-0.07569053,-0.07569053,-0.07569053],[-0.063526291,-0.063526291,-0.063526291],[-0.050108673,-0.050108673,-0.050108673],[0.093210226,0.093210226,0.093210226],[0.41700309,0.41700309,0.41700309],[0.590722,0.590722,0.590722],[0.59243193,0.59243193,0.59243193],[0.54330867,0.54330867,0.54330867],[0.48564949,0.48564949,0.48564949],[0.45100672,0.45100672,0.45100672],[0.2665412,0.2665412,0.2665412],[0.015330004,0.015330004,0.015330004],[-0.067479069,-0.067479069,-0.067479069],[-0.074048996,-0.074048996,-0.074048996],[-0.081501053,-0.081501053,-0.081501053],[-0.099547751,-0.099547751,-0.099547751],[-0.090162837,-0.090162837,-0.090162837],[-0.057752626,-0.057752626,-0.057752626]],
                                    "density_imaginary": [[0.011650448,0.011650448,0.011650448],[0.0053153006,0.0053153006,0.0053153006],[0.015546075,0.015546075,0.015546075],[0.018951413,0.018951413,0.018951413],[-0.0045579245,-0.0045579245,-0.0045579245],[-0.037944843,-0.037944843,-0.037944843],[-0.17264378,-0.17264378,-0.17264378],[-0.25640804,-0.25640804,-0.25640804],[-0.21233528,-0.21233528,-0.21233528],[-0.27029802,-0.27029802,-0.27029802],[-0.32962597,-0.32962597,-0.32962597],[-0.33889244,-0.33889244,-0.33889244],[-0.32698299,-0.32698299,-0.32698299],[-0.30583282,-0.30583282,-0.30583282],[-0.17044406,-0.17044406,-0.17044406],[-0.029695458,-0.029695458,-0.029695458],[0.0096141366,0.0096141366,0.0096141366],[0.032461816,0.032461816,0.032461816],[0.025854685,0.025854685,0.025854685],[0.0095509762,0.0095509762,0.0095509762],[0.013746121,0.013746121,0.013746121]],
                                    "velocity_parallel_real": [[-0.89130626,-0.89130626,-0.89130626],[-0.43450953,-0.43450953,-0.43450953],[-0.897693,-0.897693,-0.897693],[-0.93791045,-0.93791045,-0.93791045],[-0.26854624,-0.26854624,-0.26854624],[0.33176021,0.33176021,0.33176021],[-1.9646723,-1.9646723,-1.9646723],[-4.2456186,-4.2456186,-4.2456186],[0.56184674,0.56184674,0.56184674],[-0.59863394,-0.59863394,-0.59863394],[1.2113785,1.2113785,1.2113785],[-0.1331112,-0.1331112,-0.1331112],[-0.26453779,-0.26453779,-0.26453779],[4.4609099,4.4609099,4.4609099],[0.73810887,0.73810887,0.73810887],[0.46339872,0.46339872,0.46339872],[0.36417674,0.36417674,0.36417674],[1.0969221,1.0969221,1.0969221],[1.0293811,1.0293811,1.0293811],[0.43803685,0.43803685,0.43803685],[0.93635432,0.93635432,0.93635432]],
                                    "velocity_parallel_imaginary": [[-0.64286666,-0.64286666,-0.64286666],[-0.97212564,-0.97212564,-0.97212564],[-1.3759547,-1.3759547,-1.3759547],[-1.1755857,-1.1755857,-1.1755857],[-0.84113764,-0.84113764,-0.84113764],[-2.2252518,-2.2252518,-2.2252518],[2.6385997,2.6385997,2.6385997],[-3.5829546,-3.5829546,-3.5829546],[-0.61319655,-0.61319655,-0.61319655],[1.4189237,1.4189237,1.4189237],[-0.34813435,-0.34813435,-0.34813435],[0.20767743,0.20767743,0.20767743],[-0.12198862,-0.12198862,-0.12198862],[2.2469607,2.2469607,2.2469607],[-1.7593291,-1.7593291,-1.7593291],[2.003109,2.003109,2.003109],[0.85971487,0.85971487,0.85971487],[1.0311217,1.0311217,1.0311217],[1.381315,1.381315,1.381315],[0.95510856,0.95510856,0.95510856],[0.61049908,0.61049908,0.61049908]],
                                    "temperature_perpendicular_real": [[-0.078175269,-0.078175269,-0.078175269],[-0.089787046,-0.089787046,-0.089787046],[-0.08186334,-0.08186334,-0.08186334],[-0.067238155,-0.067238155,-0.067238155],[-0.062917419,-0.062917419,-0.062917419],[-0.066774625,-0.066774625,-0.066774625],[-0.023095104,-0.023095104,-0.023095104],[0.089389256,0.089389256,0.089389256],[0.1096197,0.1096197,0.1096197],[0.064962169,0.064962169,0.064962169],[0.028278401,0.028278401,0.028278401],[0.011129404,0.011129404,0.011129404],[0.037559052,0.037559052,0.037559052],[0.012265191,0.012265191,0.012265191],[-0.058233069,-0.058233069,-0.058233069],[-0.069726737,-0.069726737,-0.069726737],[-0.061763766,-0.061763766,-0.061763766],[-0.063565854,-0.063565854,-0.063565854],[-0.07876445,-0.07876445,-0.07876445],[-0.087837296,-0.087837296,-0.087837296],[-0.078558031,-0.078558031,-0.078558031]],
                                    "temperature_perpendicular_imaginary": [[-0.042247304,-0.042247304,-0.042247304],[-0.042912716,-0.042912716,-0.042912716],[-0.032906775,-0.032906775,-0.032906775],[-0.029480135,-0.029480135,-0.029480135],[-0.042445151,-0.042445151,-0.042445151],[-0.06521237,-0.06521237,-0.06521237],[-0.1515496,-0.1515496,-0.1515496],[-0.23518057,-0.23518057,-0.23518057],[-0.24322725,-0.24322725,-0.24322725],[-0.28545244,-0.28545244,-0.28545244],[-0.3174885,-0.3174885,-0.3174885],[-0.31833033,-0.31833033,-0.31833033],[-0.30303574,-0.30303574,-0.30303574],[-0.26247236,-0.26247236,-0.26247236],[-0.15041333,-0.15041333,-0.15041333],[-0.060526659,-0.060526659,-0.060526659],[-0.035825931,-0.035825931,-0.035825931],[-0.023552905,-0.023552905,-0.023552905],[-0.028345097,-0.028345097,-0.028345097],[-0.0409948,-0.0409948,-0.0409948],[-0.040995468,-0.040995468,-0.040995468]],
                                    "temperature_parallel_real": [[-0.033267734,-0.033267734,-0.033267734],[-0.058261659,-0.058261659,-0.058261659],[-0.067056966,-0.067056966,-0.067056966],[-0.052114273,-0.052114273,-0.052114273],[-0.042593257,-0.042593257,-0.042593257],[-0.049935069,-0.049935069,-0.049935069],[0.015718717,0.015718717,0.015718717],[0.2443683,0.2443683,0.2443683],[0.36398616,0.36398616,0.36398616],[0.36928013,0.36928013,0.36928013],[0.34811622,0.34811622,0.34811622],[0.30442908,0.30442908,0.30442908],[0.29881066,0.29881066,0.29881066],[0.16290567,0.16290567,0.16290567],[-0.017107286,-0.017107286,-0.017107286],[-0.051095448,-0.051095448,-0.051095448],[-0.049477387,-0.049477387,-0.049477387],[-0.054408237,-0.054408237,-0.054408237],[-0.069387539,-0.069387539,-0.069387539],[-0.058747594,-0.058747594,-0.058747594],[-0.033581639,-0.033581639,-0.033581639]],
                                    "temperature_parallel_imaginary": [[-0.019161859,-0.019161859,-0.019161859],[-0.027555422,-0.027555422,-0.027555422],[-0.024713588,-0.024713588,-0.024713588],[-0.022053183,-0.022053183,-0.022053183],[-0.040924932,-0.040924932,-0.040924932],[-0.042409543,-0.042409543,-0.042409543],[-0.13161504,-0.13161504,-0.13161504],[-0.18509428,-0.18509428,-0.18509428],[-0.12633498,-0.12633498,-0.12633498],[-0.18262763,-0.18262763,-0.18262763],[-0.22266592,-0.22266592,-0.22266592],[-0.21554352,-0.21554352,-0.21554352],[-0.1980701,-0.1980701,-0.1980701],[-0.19834884,-0.19834884,-0.19834884],[-0.12165727,-0.12165727,-0.12165727],[-0.037740293,-0.037740293,-0.037740293],[-0.030631886,-0.030631886,-0.030631886],[-0.012354756,-0.012354756,-0.012354756],[-0.016009346,-0.016009346,-0.016009346],[-0.022936631,-0.022936631,-0.022936631],[-0.015591312,-0.015591312,-0.015591312]],
                                    "density_gyroaveraged_real": [[-0.052699596,-0.052699596,-0.052699596],[-0.085924501,-0.085924501,-0.085924501],[-0.093966765,-0.093966765,-0.093966765],[-0.075683106,-0.075683106,-0.075683106],[-0.063520758,-0.063520758,-0.063520758],[-0.050104921,-0.050104921,-0.050104921],[0.093210871,0.093210871,0.093210871],[0.41700197,0.41700197,0.41700197],[0.59072129,0.59072129,0.59072129],[0.59243169,0.59243169,0.59243169],[0.5433086,0.5433086,0.5433086],[0.48564947,0.48564947,0.48564947],[0.45100662,0.45100662,0.45100662],[0.26654112,0.26654112,0.26654112],[0.015331086,0.015331086,0.015331086],[-0.067476243,-0.067476243,-0.067476243],[-0.074044937,-0.074044937,-0.074044937],[-0.081495694,-0.081495694,-0.081495694],[-0.099540547,-0.099540547,-0.099540547],[-0.090154924,-0.090154924,-0.090154924],[-0.057745173,-0.057745173,-0.057745173]],
                                    "density_gyroaveraged_imaginary": [[0.011655325,0.011655325,0.011655325],[0.0053201515,0.0053201515,0.0053201515],[0.015549941,0.015549941,0.015549941],[0.018954668,0.018954668,0.018954668],[-0.0045541919,-0.0045541919,-0.0045541919],[-0.037941179,-0.037941179,-0.037941179],[-0.17263955,-0.17263955,-0.17263955],[-0.25640509,-0.25640509,-0.25640509],[-0.2123337,-0.2123337,-0.2123337],[-0.27029696,-0.27029696,-0.27029696],[-0.32962526,-0.32962526,-0.32962526],[-0.33889186,-0.33889186,-0.33889186],[-0.32698214,-0.32698214,-0.32698214],[-0.305831,-0.305831,-0.305831],[-0.17044126,-0.17044126,-0.17044126],[-0.029693005,-0.029693005,-0.029693005],[0.0096164908,0.0096164908,0.0096164908],[0.032463802,0.032463802,0.032463802],[0.025857277,0.025857277,0.025857277],[0.0095546694,0.0095546694,0.0095546694],[0.01375001,0.01375001,0.01375001]],
                                    "velocity_parallel_gyroaveraged_real": [[-0.89115445,-0.89115445,-0.89115445],[-0.4344283,-0.4344283,-0.4344283],[-0.89760164,-0.89760164,-0.89760164],[-0.93783083,-0.93783083,-0.93783083],[-0.26850148,-0.26850148,-0.26850148],[0.3317919,0.3317919,0.3317919],[-1.9646202,-1.9646202,-1.9646202],[-4.2455863,-4.2455863,-4.2455863],[0.56184555,0.56184555,0.56184555],[-0.59863304,-0.59863304,-0.59863304],[1.211377,1.211377,1.211377],[-0.13311105,-0.13311105,-0.13311105],[-0.26453756,-0.26453756,-0.26453756],[4.460891,4.460891,4.460891],[0.73808278,0.73808278,0.73808278],[0.46335781,0.46335781,0.46335781],[0.36413792,0.36413792,0.36413792],[1.0968514,1.0968514,1.0968514],[1.0292991,1.0292991,1.0292991],[0.43796589,0.43796589,0.43796589],[0.93622335,0.93622335,0.93622335]],
                                    "velocity_parallel_gyroaveraged_imaginary": [[-0.64269652,-0.64269652,-0.64269652],[-0.97195802,-0.97195802,-0.97195802],[-1.3757638,-1.3757638,-1.3757638],[-1.1754255,-1.1754255,-1.1754255],[-0.84101922,-0.84101922,-0.84101922],[-2.2251225,-2.2251225,-2.2251225],[2.6386064,2.6386064,2.6386064],[-3.5829214,-3.5829214,-3.5829214],[-0.61319342,-0.61319342,-0.61319342],[1.4189212,1.4189212,1.4189212],[-0.34813401,-0.34813401,-0.34813401],[0.20767726,0.20767726,0.20767726],[-0.12198864,-0.12198864,-0.12198864],[2.246947,2.246947,2.246947],[-1.7593413,-1.7593413,-1.7593413],[2.0030226,2.0030226,2.0030226],[0.85963126,0.85963126,0.85963126],[1.0310123,1.0310123,1.0310123],[1.3811734,1.3811734,1.3811734],[0.95498209,0.95498209,0.95498209],[0.61036577,0.61036577,0.61036577]],
                                    "temperature_perpendicular_gyroaveraged_real": [[-0.078158959,-0.078158959,-0.078158959],[-0.089771901,-0.089771901,-0.089771901],[-0.081851007,-0.081851007,-0.081851007],[-0.067228961,-0.067228961,-0.067228961],[-0.062910144,-0.062910144,-0.062910144],[-0.066768881,-0.066768881,-0.066768881],[-0.023092283,-0.023092283,-0.023092283],[0.089390056,0.089390056,0.089390056],[0.10962037,0.10962037,0.10962037],[0.064962776,0.064962776,0.064962776],[0.028278849,0.028278849,0.028278849],[0.011129797,0.011129797,0.011129797],[0.037559548,0.037559548,0.037559548],[0.012266176,0.012266176,0.012266176],[-0.058230656,-0.058230656,-0.058230656],[-0.069722788,-0.069722788,-0.069722788],[-0.061758897,-0.061758897,-0.061758897],[-0.063559771,-0.063559771,-0.063559771],[-0.078755823,-0.078755823,-0.078755823],[-0.087826026,-0.087826026,-0.087826026],[-0.078545065,-0.078545065,-0.078545065]],
                                    "temperature_perpendicular_gyroaveraged_imaginary": [[-0.042237069,-0.042237069,-0.042237069],[-0.042904042,-0.042904042,-0.042904042],[-0.032900226,-0.032900226,-0.032900226],[-0.029474718,-0.029474718,-0.029474718],[-0.042439525,-0.042439525,-0.042439525],[-0.065207004,-0.065207004,-0.065207004],[-0.15154374,-0.15154374,-0.15154374],[-0.23517613,-0.23517613,-0.23517613],[-0.24322476,-0.24322476,-0.24322476],[-0.28545088,-0.28545088,-0.28545088],[-0.3174875,-0.3174875,-0.3174875],[-0.31832951,-0.31832951,-0.31832951],[-0.30303448,-0.30303448,-0.30303448],[-0.26246969,-0.26246969,-0.26246969],[-0.15040945,-0.15040945,-0.15040945],[-0.060522971,-0.060522971,-0.060522971],[-0.035822078,-0.035822078,-0.035822078],[-0.023549141,-0.023549141,-0.023549141],[-0.02834031,-0.02834031,-0.02834031],[-0.040988018,-0.040988018,-0.040988018],[-0.040987224,-0.040987224,-0.040987224]],
                                    "temperature_parallel_gyroaveraged_real": [[-0.033263295,-0.033263295,-0.033263295],[-0.058255593,-0.058255593,-0.058255593],[-0.067050252,-0.067050252,-0.067050252],[-0.052108926,-0.052108926,-0.052108926],[-0.042589391,-0.042589391,-0.042589391],[-0.04993233,-0.04993233,-0.04993233],[0.015719236,0.015719236,0.015719236],[0.24436711,0.24436711,0.24436711],[0.36398536,0.36398536,0.36398536],[0.36927975,0.36927975,0.36927975],[0.34811603,0.34811603,0.34811603],[0.30442896,0.30442896,0.30442896],[0.29881041,0.29881041,0.29881041],[0.16290529,0.16290529,0.16290529],[-0.017106672,-0.017106672,-0.017106672],[-0.051093463,-0.051093463,-0.051093463],[-0.049474384,-0.049474384,-0.049474384],[-0.054404211,-0.054404211,-0.054404211],[-0.069382361,-0.069382361,-0.069382361],[-0.058742834,-0.058742834,-0.058742834],[-0.033578023,-0.033578023,-0.033578023]],
                                    "temperature_parallel_gyroaveraged_imaginary": [[-0.019158761,-0.019158761,-0.019158761],[-0.027551781,-0.027551781,-0.027551781],[-0.024709855,-0.024709855,-0.024709855],[-0.022049791,-0.022049791,-0.022049791],[-0.040921404,-0.040921404,-0.040921404],[-0.042407105,-0.042407105,-0.042407105],[-0.13161277,-0.13161277,-0.13161277],[-0.1850929,-0.1850929,-0.1850929],[-0.12633434,-0.12633434,-0.12633434],[-0.18262711,-0.18262711,-0.18262711],[-0.22266556,-0.22266556,-0.22266556],[-0.21554324,-0.21554324,-0.21554324],[-0.19806972,-0.19806972,-0.19806972],[-0.19834803,-0.19834803,-0.19834803],[-0.12165584,-0.12165584,-0.12165584],[-0.037738647,-0.037738647,-0.037738647],[-0.030629572,-0.030629572,-0.030629572],[-0.01235255,-0.01235255,-0.01235255],[-0.016006822,-0.016006822,-0.016006822],[-0.022933946,-0.022933946,-0.022933946],[-0.015588982,-0.015588982,-0.015588982]]
                                },
                            "fluxes_norm": 
                                {
                                    "particles_phi_potential": 0.0083146348,
                                    "particles_a_field_parallel": 0,
                                    "particles_b_field_parallel": 0,
                                    "momentum_tor_parallel_phi_potential": 0.00023488968,
                                    "momentum_tor_perpendicular_phi_potential": null,
                                    "momentum_tor_parallel_a_field_parallel": -0,
                                    "momentum_tor_perpendicular_a_field_parallel": null,
                                    "momentum_tor_parallel_b_field_parallel": -0,
                                    "momentum_tor_perpendicular_b_field_parallel": null,
                                    "energy_phi_potential": 0.20169807,
                                    "energy_a_field_parallel": 0,
                                    "energy_b_field_parallel": 0
                                }
                        }                    ]
                }            ]
        }    ],
    "fluxes_integrated_norm": []
}
